		Armors	Settings	t0		t1		t2		t3		t4		t5		t0		t1		t2		t3		t4		t5
Id	Item id	Notes		X	Y	X	Y	X	Y	X	Y	X	Y	X	Y	X	Y	X	Y	X	Y	X	Y	X	Y	X	Y
1	84	Leather Jerkin		47	78	50	93	44	108	0	0	-2	0		
2	85	Hardened Leather Vest		30	84	60	95	45	111	0	0	0	0		
3	86	Caravaner's Leather		29	72	57	86	40	101	0	0	0	0		
4	87	Regnan Leather		29	78	47	90	29	107	0	0	0	0		
5	88	Alvarian Leather		46	78	42	88	38	103	0	0	0	0		
6	89	Rusty Mail Vest		61	82	61	98	46	111	0	0	0	0		
7	90	Steel Chainmail		55	82	60	98	45	116	0	0	0	0		
8	91	Minotaur Chainmail		45	76	58	91	46	107	0	0	0	0		
9	92	Siertal Chainmail		49	76	52	90	36	100	0	0	0	0		
10	93	Erudine Chainmail		49	76	43	84	28	105	0	0	0	0		
11	94	Rusty Breastplate		62	81	52	94	41	115	0	0	0	0		
12	95	Banded Plate		55	79	51	91	39	109	0	0	0	0		
13	96	Minotaur Plate		46	73	47	90	34	109	0	0	0	0		
14	97	Dark Knight Plate		50	60	54	65	39	96	0	0	0	0		
15	98	Dragoning Plate		53	70	48	82	39	100	0	0	0	0		
16	513	Serendine's Preservation		29	57	47	70	27	100	0	0	33	96		
17	514	Glomenmail		29	68	49	86	36	103	0	0	29	96		
18	515	Supreme Plate		30	69	52	82	35	107	0	0	30	94		
19	533	Last Stage Cuirass		29	57	47	70	27	100	0	0	33	96		
20	868	Crude Leather Armor		29	81	47	90	47	110	0	0	45	108		
21	869	Studded Leather		29	81	50	93	45	111	0	0	45	106		
22	870	Officer's Leather		29	81	50	93	45	111	0	0	45	106		
23	871	Regnan Leather		29	81	50	93	45	111	0	0	45	106		
24	872	Royal Leather		38	80	58	85	25	108	23	92	35	109		
25	873	Disheveled Chain Mail		31	81	60	96	46	111	0	0	41	107		
26	874	Quality Steel Chain Mail		31	81	60	96	46	111	0	0	41	107		
27	875	Fine Chain Mail		44	75	59	97	40	105	38	94	47	110		
28	876	Resplendent Chain Mail		45	76	58	91	46	107	0	0	0	0		
29	877	Golden Chain Mail		39	75	53	93	41	103	35	96	45	110		
30	878	Plate Armor		31	73	54	93	37	103	35	95	45	110		
31	879	Splendid Plate Armor		31	73	54	93	37	103	35	95	45	110		
32	880	Noble Plate Armor		31	73	39	93	22	103	20	95	35	110		
33	1306	Governor's Armor		39	75	53	93	41	103	35	96	45	110		
34	1307	Yoruba		31	73	54	93	37	103	35	95	45	110		
35	1318	Hareck's Leather		38	80	58	85	25	108	23	92	35	109		
36	1335	Elven Chainmail		44	75	59	97	40	105	38	94	47	110		
37	1406	Wetsuit		0	-1	0	0	9	23	0	17	15	44		
38	1668	Leather Armor		46	73	55	91	37	103	0	0	40	110
39	1669	Studded Leather		46	73	55	91	37	103	0	100	42	110
40	1670	Enchanted Leather		46	73	55	91	37	103	0	0	40	110
41	1671	Dragon Leather		46	73	55	91	37	103	0	0	40	110
42	1672	Imperial Leather		46	73	55	91	37	103	0	0	40	110
43	1673	Chain Mail		31	73	58	91	37	103	0	0	45	110
44	1674	Steel Chain Mail		31	73	58	91	37	103	0	0	45	110
45	1675	Noble Chain Mail		31	73	58	91	37	103	0	0	45	110
46	1676	Royal Chain Mail		31	73	58	91	37	103	0	0	45	110
47	1677	Majestic Chain Mail		43	81	52	93	45	110	41	98	49	112		
48	1678	Plate Armor		23	73	43	91	31	104	0	88	35	113
49	1679	Steel Plate Armor		23	73	43	91	31	104	0	88	35	113
50	1680	Golden Plate Armor		23	73	43	91	31	104	0	88	35	113
51	2026	Galahad		43	81	52	93	45	110	41	98	49	112
52	2027	Pellinore		23	73	43	91	31	104	0	88	35	113
53	2041	Apollo		43	81	61	96	45	110	41	98	49	112		
54	2042	Zeus		23	73	43	91	31	104	0	88	35	113

		Helms	Complex												
1	109	Helm	x	87	28	72	41	74	44	77	42	72	67		
2	110	Lizardman Helm	x	79	24	65	35	66	43	64	30	64	63		
3	111	Full Helm	x	85	27	74	45	55	47	68	41	70	63		
4	112	Battle Helm	x	57	8	49	25	52	48	43	13	44	45		
5	113	Dragon Helm	x	77	18	62	28	57	41	50	18	62	54		
6	114	Cloth Hat		85	26	72	42	58	38	78	40	70	64		
7	115	Festival Hat		83	30	68	47	59	26	70	50	68	70		
8	116	Merchantman's Hat		88	30	72	42	65	55	78	38	72	68		
9	520	Drogg's Helm	x	77	6	68	26	64	47	61	17	62	44		
10	521	Crown of Final Dominion	x	81	0	67	-5	0	0	77	12	65	40		
11	536	Lucky Hat		78	14	66	30	54	52	74	35	62	48		
12	891	Horned Helm	x	77	5	67	29	74	44	62	22	62	44
13	892	Conscript's Helm	x	77	5	67	29	74	44	62	22	62	44
14	893	Full Helm	x	77	21	66	38	74	44	56	37	62	60
15	894	Phynaxian Helm	x	79	26	67	38	74	44	56	37	62	68
16	895	Mogred Helm	x	77	5	67	29	74	44	62	22	62	44
17	896	Peasant Hat	x	77	5	67	29	74	44	62	22	62	44
18	897	Traveller's Hat	x	77	5	67	29	74	44	62	22	62	44
19	898	Fancy Hat	x	77	5	67	29	74	44	62	22	62	44
20	899	Crown	x	77	5	67	29	74	44	62	22	62	44
21	900	Noble Crown	x	77	5	67	29	74	44	62	22	62	44
22	901	Regal Crown	x	77	5	67	29	74	44	62	22	62	44
23	1323	Taledon's Helm	x	79	24	67	38	74	44	56	37	62	66
24	1324	Scholar's Cap	x	77	5	67	29	74	44	62	22	62	44
25	1325	Phynaxian Crown	x	77	5	67	29	74	44	62	22	62	44
26	1334	Mind's Eye	x	77	5	67	29	74	44	62	22	62	44
27	1346	Shadow's Mask	x	92	46	78	62	0	0	80	68	73	88		
28	1691	Wooden Helm	x	87	22	72	41	68	44	71	39	74	67		
29	1692	Steel Helm	x	80	23	70	41	57	50	63	39	66	67		
30	1693	Guardian Helm	x	73	18	54	30	48	39	47	34	51	58		
31	1694	Defender Helm	x	70	10	56	30	49	32	58	26	58	57		
32	1695	Angelic Helm	x	75	19	59	34	51	41	62	31	62	61		
33	1696	Cloth Hat	x	88	19	72	32	67	36	77	38	72	60		
34	1697	Dandy Hat	x	58	10	44	31	45	49	45	40	48	60		
35	1698	Wizard Cap	x	79	-8	67	9	65	05	66	10	62	38		
36	1699	Wreath Crown	x	88	30	70	47	63	64	75	53	74	75		
37	1700	Regal Crown	x	87	23	73	43	65	53	73	48	75	71		
38	1701	Almighty Crown	x	88	26	73	43	64	61	75	52	74	70		
39	2029	Arthur	x	88	26	73	43	64	61	75	52	74	70		
40	2044	Odin	x	88	26	73	43	64	61	75	52	74	70		

		Belts	Complex												
1	117	Leather Belt		64	147	68	151	55	194	58	182	61	190		
2	118	Sturdy Belt		66	147	70	154	57	194	55	178	62	189		
3	119	Wyvern Leather Belt		63	146	71	155	54	193	52	185	58	191		
4	120	Steel Belt		67	138	70	154	58	190	58	175	62	180		
5	121	Artificer's Belt		65	151	72	153	58	198	55	183	61	188		
6	537	Berserker Belt		66	149	71	150	57	196	56	172	61	188		
7	902	Leather Belt		64	149	70	154	54	194	56	185	60	189		
8	903	Fine Belt		66	147	67	151	55	194	62	178	62	183		
9	904	Strong Belt		63	146	67	152	53	193	56	183	58	183		
10	905	Silver Belt		67	150	68	152	57	196	58	184	62	186		
11	906	Gilded Belt		65	151	65	150	55	192	57	179	61	183		
12	1326	Titan's Belt		63	142	70	148	56	191	59	176	58	183
13	1337	Hero's Belt		66	149	71	150	57	196	56	172	61	188		
14	1702	Leather Belt		64	147	60	154	54	194	58	182	61	183		
15	1703	Mercenary Belt		66	147	65	149	55	194	62	178	62	183		
16	1704	Vanguard Belt		63	146	67	151	53	193	56	183	58	183		
17	1705	Warlord Belt		67	150	66	152	57	196	58	184	62	186		
18	1706	Sovereign Belt		65	151	62	148	55	192	57	179	61	183		

		Boots	n/u
1	132	Walking Boots		46	261	75	260	75	260	46	290	52	276		
2	133	Hardened Leather Boots		40	255	73	260	65	255	44	278	43	260		
3	134	Regnan Boots		31	250	64	255	21	288	45	269	46	255		
4	135	Alvarian Boots		30	250	64	257	21	276	45	268	43	256		
5	136	Dragonning Boots		26	241	57	242	19	266	45	250	45	238		
6	518	Herald's Boots		41	254	70	250	17	318	47	272	54	263		
7	917	Leather Boots		27	246	62	255	21	276	43	268	43	256
8	918	Steel Plated Boots		27	246	62	255	21	276	43	268	43	256
9	919	Ranger Boots		27	246	62	255	21	276	43	268	43	256
10	920	Knight's Boots		27	246	62	255	21	276	43	268	43	256
11	921	Paladin Boots		27	246	62	255	21	276	43	268	43	256
12	1314	Seven League Boots		27	246	62	255	21	276	43	268	43	256
13	1331	Hermes' Sandals		41	254	70	250	17	318	47	272	54	263		
14	1439	Winged Sandals		41	254	70	250	17	318	47	272	54	263		
15	1717	Leather Boots		30	250	68	265	21	276	45	268	43	256
16	1718	Steel Boots		30	250	68	265	21	276	45	268	43	256
17	1719	Armored Boots		30	250	68	265	21	276	45	268	43	256
18	1720	Sterling Boots		30	250	68	265	21	276	45	268	43	256
19	1721	Ultimate Boots		30	250	68	265	21	276	45	268	43	256
20	2031	Lucius		30	250	68	265	21	276	45	268	43	256
21	2046	Hermes		30	250	68	265	21	276	45	268	43	256

		Cloaks	Complex													Collars											
1	122	Traveler's Cloak		51	79	47	90	40	120	41	94	43	117			84	80	75	90	68	120	61	99	68	120		
2	123	Moon Temple Cloak		54	81	54	91	40	119	39	94	40	112			77	81	67	91	64	116	61	99	62	116		
3	124	Alvar Cloak		56	82	60	91	40	115	44	103	41	108			76	76	69	91	65	113	65	99	62	116		
4	125	Necromancer Cloak		49	80	55	93	40	119	44	97	41	108			80	73	72	83	65	114	65	95	62	116		
5	126	Vampire Cloak	x	57	82	54	95	40	123	44	88	42	106			64	57	51	64	48	104	47	78	48	95		
6	522	Archangel Wings		51	78	53	94	40	120	41	94	41	108			81	64	72	76	68	105	61	84	67	102		
7	907	Leather Cloak		44	77	45	91	30	115	29	103	39	108			0	0	0	0	0	0	0	0	0	0
8	908	Huntsman's Cloak		44	77	45	91	30	115	19	103	39	108			66	76	57	91	45	114	39	95	47	116
9	909	Ranger's Cloak		44	77	45	91	30	115	19	103	39	108			66	76	57	91	45	109	39	95	47	116
10	910	Elegant Cloak		44	77	45	91	30	115	19	103	39	108			66	76	57	91	45	109	39	95	47	116
11	911	Glorious Cloak		44	77	45	91	30	115	19	103	39	108			66	76	57	91	45	109	39	95	47	116
12	1327	Twilight		44	77	45	91	30	115	19	103	39	108			66	76	57	91	45	109	39	95	47	116
13	1332	Cloak of the Sheep		44	77	45	91	35	115	29	103	39	108			66	76	57	91	45	109	39	95	47	116
14	1349	Sun Cloak		44	77	45	91	30	115	19	103	39	108			66	76	57	91	45	109	39	95	47	116
15	1350	Moon Cloak		44	77	45	91	30	115	19	103	39	108			66	76	57	91	45	109	39	95	47	116
16	1352	Vampire's Cape		44	77	45	91	35	115	29	103	39	108			66	76	57	91	45	109	39	95	47	116
17	1707	Leather Cloak		38	68	35	76	28	102	29	83	29	98			0	0	0	0	0	0	0	0	0	0
18	1708	Phantom Cloak		38	68	35	76	28	102	29	83	29	98			0	0	0	0	0	0	0	0	0	0
19	1709	Elven Cloak		38	68	35	76	28	102	29	83	29	98			0	0	0	0	0	0	0	0	0	0
20	1710	Cardinal Cloak		38	68	35	76	28	102	29	83	29	98			0	0	0	0	0	0	0	0	0	0
21	1711	Doom's Day Cloak		38	68	35	76	28	102	29	93	29	98			0	0	0	0	0	0	0	0	0	0
22	2030	Pendragon		38	68	35	76	28	102	29	83	29	98			0	0	0	0	0	0	0	0	0	0
23	2045	Atlas		38	68	35	76	28	102	29	83	29	98			0	0	0	0	0	0	0	0	0	0
24	2105	Cloak of Baa		38	68	35	76	28	102	29	83	29	98			0	0	0	0	0	0	0	0	0	0
