# Class	Note	Promotions
0	Archer	1
1	Warrior Mage	4	6
8	Cleric	9	11
9	Priest	14	16	18
11	Cleric of the Light	14	16
21	Dark Elf	22
29	Dragon	30
36	Druid	37
37	Great Druid	40	42
44	Knight	45
45	Cavalier	48	50
53	Minotaur	54
60	Monk	61
61	Initiate	64	66
68	Paladin	69
69	Crusader	72	74
76	Ranger	77
77	Hunter	80	82
84	Thief	85
85	Rogue	88	90
93	Berserker	94
101	Vampire	102
108	Sorcerer	109	113
109	Wizard	114	116	118
113	Necromancer	114	118
